Capítulo 7 MACHINE LEARNING (No Supervisado) | Taller de Introducción a Ciencia de Datos y Machine Learning
…
Finalmente, podemos detener el entrenamiento si se alcanza el número máximo de iteraciones. Supongamos que hemos establecido el número de iteraciones en 100. El proceso se repetirá durante 100 iteraciones antes de detenerse.

7.2.2 Implementación en R

library(readr)
library(dplyr)
library(factoextra)
library(ggplot2)
library(patchwork)

Churn <- read_csv("data/Churn.csv")
Churn

## # A tibble: 7,043 × 21
##    customerID gender SeniorCitizen Partner Dependents tenure PhoneService
##    <chr>      <chr>          <dbl> <chr>   <chr>       <dbl> <chr>       
##  1 7590-VHVEG Female             0 Yes     No              1 No          
##  2 5575-GNVDE Male               0 No      No             34 Yes         
##  3 3668-QPYBK Male               0 No      No              2 Yes         
##  4 7795-CFOCW Male               0 No      No             45 No          
##  5 9237-HQITU Female             0 No      No              2 Yes         
##  6 9305-CDSKC Female             0 No      No              8 Yes         
##  7 1452-KIOVK Male               0 No      Yes            22 Yes         
##  8 6713-OKOMC Female             0 No      No             10 No          
##  9 7892-POOKP Female             0 Yes     No             28 Yes         
## 10 6388-TABGU Male               0 No      Yes            62 Yes         
## # … with 7,033 more rows, and 14 more variables: MultipleLines <chr>,
## #   InternetService <chr>, OnlineSecurity <chr>, OnlineBackup <chr>,
## #   DeviceProtection <chr>, TechSupport <chr>, StreamingTV <chr>,
## #   StreamingMovies <chr>, Contract <chr>, PaperlessBilling <chr>,
## #   PaymentMethod <chr>, MonthlyCharges <dbl>, TotalCharges <dbl>, Churn <chr>
…
