Capítulo 5 APRENDIZAJE SUPERVISADO | AMAT- Introducción a Ciencia de Datos y Machine Learning
…
Recordemos que la función recipe() solo son los pasos a seguir, necesitamos usar la función prep() que nos devuelve una receta actualizada con las estimaciones y la función juice() que nos devuelve la matriz de diseño.

casa_juiced <- juice(receta_casas)
casa_juiced

## # A tibble: 2,197 × 275
##    Lot_Frontage Lot_Area Year_Built Mas_Vnr_Area BsmtFin_SF_1 BsmtFin_SF_2
##           <dbl>    <dbl>      <dbl>        <dbl>        <dbl>        <dbl>
##  1       0.214    0.604       0.848       -0.572       -0.512       -0.293
##  2       0.363   -0.216      -0.114       -0.572       -0.512       -0.293
##  3       1.05    -0.0159      1.08        -0.572        1.26        -0.293
##  4      -0.173    4.87        1.15         3.49        -0.512       -0.293
##  5       0.512    0.256       1.11         0.526        1.26        -0.293
##  6      -0.233   -0.696      -0.844       -0.572        1.26        -0.293
##  7       0.125   -0.261      -0.446       -0.572       -0.512       -0.293
##  8       0.571   -0.193      -0.479       -0.572        0.819       -0.293
##  9       0.274    0.704       0.981       -0.572        1.26        -0.293
## 10       0.0651  -0.356      -0.712       -0.572        0.375       -0.293
## # … with 2,187 more rows, and 269 more variables: Bsmt_Unf_SF <dbl>,
## #   Full_Bath <dbl>, Half_Bath <dbl>, Bedroom_AbvGr <dbl>, TotRms_AbvGrd <dbl>,
## #   Fireplaces <dbl>, Garage_Cars <dbl>, Garage_Area <dbl>, Wood_Deck_SF <dbl>,
## #   Open_Porch_SF <dbl>, Enclosed_Porch <dbl>, ThirdSsn_Porch <dbl>,
## #   Screen_Porch <dbl>, Misc_Val <dbl>, Mo_Sold <dbl>, Year_Sold <dbl>,
## #   Longitude <dbl>, Latitude <dbl>, Sale_Price <dbl>,
## #   Bedroom_AbvGr_o_Gr_Liv_Area <dbl>, Age_House <dbl>, TotalSF <dbl>, …
…
Ahora recuperamos la matriz de diseño con las funciones prep() y juice().

telco_juiced <- juice(telco_rec)
telco_juiced

## # A tibble: 4,930 × 35
##    SeniorCitizen MonthlyCharges TotalCharges Churn gender_Male Partner_Yes
##            <dbl>          <dbl>        <dbl> <fct>       <dbl>       <dbl>
##  1        -0.442         -1.50        -0.663 No              0           0
##  2        -0.442          0.664        0.472 No              1           1
##  3        -0.442         -0.508       -0.546 No              0           0
##  4         2.26           0.649       -0.850 Yes             0           0
##  5        -0.442          0.167       -0.979 Yes             0           0
##  6        -0.442          0.842        0.975 No              1           1
##  7        -0.442          0.260       -0.648 No              1           0
##  8        -0.442         -0.668        0.178 No              1           1
##  9        -0.442         -1.20        -0.706 No              1           1
## 10        -0.442         -0.407       -0.348 No              0           0
## # … with 4,920 more rows, and 29 more variables: Dependents_Yes <dbl>,
## #   tenure_X1.2.years <dbl>, tenure_X2.3.years <dbl>, tenure_X3.4.years <dbl>,
## #   tenure_X4.5.years <dbl>, tenure_X5.6.years <dbl>, PhoneService_Yes <dbl>,
## #   MultipleLines_No.phone.service <dbl>, MultipleLines_Yes <dbl>,
## #   InternetService_Fiber.optic <dbl>, InternetService_No <dbl>,
## #   OnlineSecurity_No.internet.service <dbl>, OnlineSecurity_Yes <dbl>,
## #   OnlineBackup_No.internet.service <dbl>, OnlineBackup_Yes <dbl>, …
…
modelo1 <-  linear_reg() %>%
  set_mode("regression") %>%
  set_engine("lm")

lm_fit1 <- fit(modelo1, Sale_Price ~ ., casa_juiced)

p_test <- predict(lm_fit1, casa_test_bake) %>%
  mutate(.pred = exp(.pred)) %>% 
  bind_cols(ames_test) %>%
  select(.pred, Sale_Price) %>% 
  mutate(error = Sale_Price - .pred)

p_test

## # A tibble: 733 × 3
##      .pred Sale_Price   error
##      <dbl>      <int>   <dbl>
##  1 116703.     105000 -11703.
##  2 177029.     185000   7971.
##  3 166772.     180400  13628.
##  4 109872.     141000  31128.
##  5 219261.     210000  -9261.
##  6 212340.     216000   3660.
##  7 164850.     149900 -14950.
##  8  99545.     105500   5955.
##  9 102023.      88000 -14023.
## 10 137758.     146000   8242.
## # … with 723 more rows

5.2.5 Coeficientes del modelo

Podemos recuperar los coeficientes de nuestro modelo con la función tidy() y observar cuales variables explicativas son las más significativas de acuerdo con el p-value.

lm_fit1 %>% tidy() %>% arrange(desc(p.value))

## # A tibble: 275 × 5
##    term                                     estimate std.error statistic p.value
##    <chr>                                       <dbl>     <dbl>     <dbl>   <dbl>
##  1 Roof_Style_Gambrel                       -3.73e-4    0.0778  -0.00479   0.996
##  2 Exterior_1st_Stone                       -7.39e-4    0.141   -0.00524   0.996
##  3 House_Style_Two_Story                     3.78e-4    0.0281   0.0135    0.989
##  4 Neighborhood_South_and_West_of_Iowa_Sta… -5.82e-4    0.0369  -0.0158    0.987
##  5 Exterior_2nd_HdBoard                     -1.17e-3    0.0520  -0.0224    0.982
##  6 Bsmt_Cond_Typical                        -2.76e-3    0.0799  -0.0346    0.972
##  7 Electrical_Unknown                        4.00e-3    0.111    0.0362    0.971
##  8 Latitude                                 -5.38e-4    0.0142  -0.0380    0.970
##  9 Neighborhood_Mitchell                     1.66e-3    0.0421   0.0395    0.968
## 10 Neighborhood_Sawyer                       1.64e-3    0.0331   0.0494    0.961
## # … with 265 more rows
…
Ajustaremos un modelo de regresión logística usando la receta antes vista.

logistic_model <-  logistic_reg() %>%
  set_engine("glm")

logistic_fit1 <- parsnip::fit(logistic_model, Churn ~ ., telco_juiced)

logistic_p_test <- predict(logistic_fit1, telco_test_bake) %>%
  bind_cols(telco_test_bake) %>% 
  select(.pred_class, Churn)

logistic_p_test

## # A tibble: 2,113 × 2
##    .pred_class Churn
##    <fct>       <fct>
##  1 No          No   
##  2 Yes         Yes  
##  3 No          No   
##  4 No          No   
##  5 No          No   
##  6 Yes         No   
##  7 No          No   
##  8 No          No   
##  9 No          Yes  
## 10 No          No   
## # … with 2,103 more rows
…
¿Y si se quiere un corte diferente? ¿el negocio qué necesita?

logistic_p_test_prob <- predict(logistic_fit1, telco_test_bake, type = "prob") %>%
  bind_cols(telco_test_bake) %>% 
  select(.pred_Yes, .pred_No, Churn)

logistic_p_test_prob

## # A tibble: 2,113 × 3
##    .pred_Yes .pred_No Churn
##        <dbl>    <dbl> <fct>
##  1    0.0367    0.963 No   
##  2    0.837     0.163 Yes  
##  3    0.335     0.665 No   
##  4    0.0130    0.987 No   
##  5    0.0348    0.965 No   
##  6    0.509     0.491 No   
##  7    0.0753    0.925 No   
##  8    0.0449    0.955 No   
##  9    0.424     0.576 Yes  
## 10    0.0187    0.981 No   
## # … with 2,103 more rows

logistic_p_test_prob <- logistic_p_test_prob %>% 
  mutate(.pred_class  = as_factor(if_else ( .pred_Yes >= 0.30, 'Yes', 'No'))) %>% 
  relocate(.pred_class , .after = .pred_No)

logistic_p_test_prob

## # A tibble: 2,113 × 4
##    .pred_Yes .pred_No .pred_class Churn
##        <dbl>    <dbl> <fct>       <fct>
##  1    0.0367    0.963 No          No   
##  2    0.837     0.163 Yes         Yes  
##  3    0.335     0.665 Yes         No   
##  4    0.0130    0.987 No          No   
##  5    0.0348    0.965 No          No   
##  6    0.509     0.491 Yes         No   
##  7    0.0753    0.925 No          No   
##  8    0.0449    0.955 No          No   
##  9    0.424     0.576 Yes         Yes  
## 10    0.0187    0.981 No          No   
## # … with 2,103 more rows
…
lasso_ridge_regression_tunning %>% collect_metrics()

## # A tibble: 3,200 × 8
##     penalty mixture .metric .estimator       mean     n      std_err .config    
##       <dbl>   <dbl> <chr>   <chr>           <dbl> <int>        <dbl> <chr>      
##  1 0.0001         0 mae     standard   180544.       10 1014.        Preprocess…
##  2 0.0001         0 mape    standard      100.       10    0.0000689 Preprocess…
##  3 0.0001         0 rmse    standard   197259.       10 1734.        Preprocess…
##  4 0.0001         0 rsq     standard        0.687    10    0.0110    Preprocess…
##  5 0.000134       0 mae     standard   180544.       10 1014.        Preprocess…
##  6 0.000134       0 mape    standard      100.       10    0.0000689 Preprocess…
##  7 0.000134       0 rmse    standard   197259.       10 1734.        Preprocess…
##  8 0.000134       0 rsq     standard        0.687    10    0.0110    Preprocess…
##  9 0.000180       0 mae     standard   180544.       10 1014.        Preprocess…
## 10 0.000180       0 mape    standard      100.       10    0.0000689 Preprocess…
## # … with 3,190 more rows
…
# Se detiene el cluster de trabajo
stopCluster(cluster) 

# Se guarda tune_grid en formato RDS
regularized_tune_result %>% 
  saveRDS("models/regularized_logistic_regression.rds")

# Se carga el modelo
regularized_tune_result <- readRDS("models/regularized_logistic_regression.rds")

# Métricas
regularized_tune_result %>% unnest(.metrics)

## # A tibble: 4,500 × 10
##    splits             id      penalty mixture .metric .estimator .estimate
##    <list>             <chr>     <dbl>   <dbl> <chr>   <chr>          <dbl>
##  1 <split [4437/493]> Fold01 1   e-10       0 roc_auc binary         0.777
##  2 <split [4437/493]> Fold01 7.20e-10       0 roc_auc binary         0.777
##  3 <split [4437/493]> Fold01 5.18e- 9       0 roc_auc binary         0.777
##  4 <split [4437/493]> Fold01 3.73e- 8       0 roc_auc binary         0.777
##  5 <split [4437/493]> Fold01 2.68e- 7       0 roc_auc binary         0.777
##  6 <split [4437/493]> Fold01 1.93e- 6       0 roc_auc binary         0.777
##  7 <split [4437/493]> Fold01 1.39e- 5       0 roc_auc binary         0.777
##  8 <split [4437/493]> Fold01 1   e- 4       0 roc_auc binary         0.777
##  9 <split [4437/493]> Fold01 7.20e- 4       0 roc_auc binary         0.777
## 10 <split [4437/493]> Fold01 5.18e- 3       0 roc_auc binary         0.777
## # … with 4,490 more rows, and 3 more variables: .config <chr>, .notes <list>,
## #   .predictions <list>
…
stopCluster(cluster)

knn_tune_result %>% saveRDS("models/knn_model_reg.rds")

Podemos obtener las métricas de cada fold con el siguiente código:

knn_tune_result <- readRDS("models/knn_model_reg.rds")

knn_tune_result %>% unnest(.metrics)

## # A tibble: 3,660 × 10
##    splits             id         K weight_func .metric .estimator .estimate
##    <list>             <chr>  <int> <chr>       <chr>   <chr>          <dbl>
##  1 <split [1845/206]> Fold01    11 cos         rmse    standard       0.246
##  2 <split [1845/206]> Fold01    12 cos         rmse    standard       0.245
##  3 <split [1845/206]> Fold01    22 cos         rmse    standard       0.247
##  4 <split [1845/206]> Fold01    27 cos         rmse    standard       0.248
##  5 <split [1845/206]> Fold01    28 cos         rmse    standard       0.248
##  6 <split [1845/206]> Fold01    30 cos         rmse    standard       0.248
##  7 <split [1845/206]> Fold01    33 cos         rmse    standard       0.249
##  8 <split [1845/206]> Fold01    35 cos         rmse    standard       0.249
##  9 <split [1845/206]> Fold01    37 cos         rmse    standard       0.249
## 10 <split [1845/206]> Fold01    39 cos         rmse    standard       0.249
## # … with 3,650 more rows, and 3 more variables: .config <chr>, .notes <list>,
## #   .predictions <list>
…
stopCluster(cluster)

tree_tune_result %>% saveRDS("models/tree_model_reg.rds")

Podemos obtener las métricas de cada fold con el siguiente código:

tree_tune_result <- readRDS("models/tree_model_reg.rds")

tree_tune_result %>% unnest(.metrics)

## # A tibble: 3,750 × 11
##    splits             id     cost_complexity tree_depth min_n .metric .estimator
##    <list>             <chr>            <dbl>      <int> <int> <chr>   <chr>     
##  1 <split [1977/220]> Fold01    0.0000000001          1     2 rmse    standard  
##  2 <split [1977/220]> Fold01    0.0000000001          1     2 mae     standard  
##  3 <split [1977/220]> Fold01    0.0000000001          1     2 mape    standard  
##  4 <split [1977/220]> Fold01    0.0000000001          1    11 rmse    standard  
##  5 <split [1977/220]> Fold01    0.0000000001          1    11 mae     standard  
##  6 <split [1977/220]> Fold01    0.0000000001          1    11 mape    standard  
##  7 <split [1977/220]> Fold01    0.0000000001          1    21 rmse    standard  
##  8 <split [1977/220]> Fold01    0.0000000001          1    21 mae     standard  
##  9 <split [1977/220]> Fold01    0.0000000001          1    21 mape    standard  
## 10 <split [1977/220]> Fold01    0.0000000001          1    30 rmse    standard  
## # … with 3,740 more rows, and 4 more variables: .estimate <dbl>, .config <chr>,
## #   .notes <list>, .predictions <list>
…
stopCluster(cluster)

tree_tune_result %>% saveRDS("models/tree_model_cla.rds")

tree_tune_result <- readRDS("models/tree_model_cla.rds")

tree_tune_result %>% unnest(.metrics)

## # A tibble: 3,750 × 11
##    splits             id     cost_complexity tree_depth min_n .metric .estimator
##    <list>             <chr>            <dbl>      <int> <int> <chr>   <chr>     
##  1 <split [4437/493]> Fold01    0.0000000001          1     2 sens    binary    
##  2 <split [4437/493]> Fold01    0.0000000001          1     2 roc_auc binary    
##  3 <split [4437/493]> Fold01    0.0000000001          1     2 pr_auc  binary    
##  4 <split [4437/493]> Fold01    0.0000000001          1    11 sens    binary    
##  5 <split [4437/493]> Fold01    0.0000000001          1    11 roc_auc binary    
##  6 <split [4437/493]> Fold01    0.0000000001          1    11 pr_auc  binary    
##  7 <split [4437/493]> Fold01    0.0000000001          1    21 sens    binary    
##  8 <split [4437/493]> Fold01    0.0000000001          1    21 roc_auc binary    
##  9 <split [4437/493]> Fold01    0.0000000001          1    21 pr_auc  binary    
## 10 <split [4437/493]> Fold01    0.0000000001          1    30 sens    binary    
## # … with 3,740 more rows, and 4 more variables: .estimate <dbl>, .config <chr>,
## #   .notes <list>, .predictions <list>
…
