Capítulo 4 MACHINE LEARNING: CONCEPTOS BÁSICOS | AMAT- Introducción a Ciencia de Datos y Machine Learning
…
ejemplo %>% bake(new_data = NULL) %>% 
  select(Sale_Price, Sale_Price_Peso, Year_Remod_Add, Year_Built, Last_Inversion)

## # A tibble: 2,930 × 5
##    Sale_Price Sale_Price_Peso Year_Remod_Add Year_Built Last_Inversion
##         <int>           <dbl>          <int>      <int>          <int>
##  1     131000        2602970            2007       1880            127
##  2     265979        5285003.           2003       1880            123
##  3     295000        5861650            2002       1880            122
##  4      94000        1867780            1996       1875            121
##  5     138000        2742060            2006       1890            116
##  6     122000        2424140            1987       1872            115
##  7     240000        4768800            2002       1890            112
##  8     119600        2376452            2006       1895            111
##  9     124000        2463880            1991       1880            111
## 10     100000        1987000            1995       1885            110
## # … with 2,920 more rows
…
Finalmente, el error estimado por el es el promedio de todos lo \(i\) errores calculados.

La principal desventaja de este método es su costo computacional.
El proceso requiere que el modelo sea reajustado y validado tantas veces como observaciones disponibles
se tengan lo que en algunos casos puede ser muy complicado.

rsample contiene la función loo_cv().

set.seed(55)
ames_loo <- loo_cv(ames_train)
ames_loo

## # Leave-one-out cross-validation 
## # A tibble: 2,342 × 2
##    splits           id        
##    <list>           <chr>     
##  1 <split [2341/1]> Resample1 
##  2 <split [2341/1]> Resample2 
##  3 <split [2341/1]> Resample3 
##  4 <split [2341/1]> Resample4 
##  5 <split [2341/1]> Resample5 
##  6 <split [2341/1]> Resample6 
##  7 <split [2341/1]> Resample7 
##  8 <split [2341/1]> Resample8 
##  9 <split [2341/1]> Resample9 
## 10 <split [2341/1]> Resample10
## # … with 2,332 more rows
…
